[{
  "_id": {
    "$oid": "5fc3cd4b170ab2ee872832a7"
  },
  "nombre": "Anna",
  "email": "a@a.com",
  "password": "anna",
  "__v": 0
},{
  "_id": {
    "$oid": "5fc3cd58170ab2ee872832a8"
  },
  "nombre": "Barbara",
  "email": "b@b.com",
  "password": "barbara",
  "__v": 0
},{
  "_id": {
    "$oid": "5fc3cd64170ab2ee872832a9"
  },
  "nombre": "Carla",
  "email": "c@c.com",
  "password": "carla",
  "__v": 0
},{
  "_id": {
    "$oid": "5fc3cd7b170ab2ee872832aa"
  },
  "nombre": "Diana",
  "email": "d@d.com",
  "password": "diana",
  "__v": 0
},{
  "_id": {
    "$oid": "5fc3cd99170ab2ee872832ab"
  },
  "nombre": "Eli",
  "email": "e@e.com",
  "password": "eli",
  "__v": 0
},{
  "_id": {
    "$oid": "5fc3cdbf170ab2ee872832ac"
  },
  "nombre": "Fatima",
  "email": "f@f.com",
  "password": "fatima",
  "__v": 0
},{
  "_id": {
    "$oid": "5fc3cdd3170ab2ee872832ad"
  },
  "nombre": "Gemma",
  "email": "g@g.com",
  "password": "gemma",
  "__v": 0
},{
  "_id": {
    "$oid": "5fc3cde1170ab2ee872832ae"
  },
  "nombre": "Helena",
  "email": "h@h.com",
  "password": "helena",
  "__v": 0
}]